{
    "appName": "MsTeamJsApp",
    "projectId": "148e9f30-3cd0-4b11-b687-44f4e07e8ece",
    "solutionSettings": {
        "name": "fx-solution-azure",
        "version": "1.0.0",
        "hostType": "Azure",
        "azureResources": [],
        "capabilities": [
            "Tab"
        ],
        "activeResourcePlugins": [
            "fx-resource-frontend-hosting",
            "fx-resource-aad-app-for-teams",
            "fx-resource-local-debug",
            "fx-resource-appstudio",
            "fx-resource-simple-auth"
        ]
    },
    "version": "1.0.0",
    "isFromSample": false,
    "programmingLanguage": "javascript"
}